{
  "project_info": {
    "project_number": "616222439056",
    "firebase_url": "https://pokedex-659b7.firebaseio.com",
    "project_id": "pokedex-659b7",
    "storage_bucket": "pokedex-659b7.appspot.com"
  },
  "client": [
    {
      "client_info": {
        "mobilesdk_app_id": "1:616222439056:android:148c61d978b0cead",
        "android_client_info": {
          "package_name": "com.example.levictor.pokedex"
        }
      },
      "oauth_client": [
        {
          "client_id": "616222439056-7f4261bc8k010r5gphdk4il2b8q1tdpo.apps.googleusercontent.com",
          "client_type": 1,
          "android_info": {
            "package_name": "com.example.levictor.pokedex",
            "certificate_hash": "f7c6d4da83392c54e8d05d2c357dc9425af3ed79"
          }
        },
        {
          "client_id": "616222439056-d8mi7a60q5tdmap2k3n2l37t95eq9ctq.apps.googleusercontent.com",
          "client_type": 3
        }
      ],
      "api_key": [
        {
          "current_key": "AIzaSyCsBjrKSD7-FaPF09K41F2VDwg3C5M6UbI"
        }
      ],
      "services": {
        "analytics_service": {
          "status": 1
        },
        "appinvite_service": {
          "status": 2,
          "other_platform_oauth_client": [
            {
              "client_id": "616222439056-d8mi7a60q5tdmap2k3n2l37t95eq9ctq.apps.googleusercontent.com",
              "client_type": 3
            }
          ]
        },
        "ads_service": {
          "status": 2
        }
      }
    }
  ],
  "configuration_version": "1"
}